%YAML 1.1
%TAG !u! tag:unity3d.com,2011:
--- !u!1045 &1
EditorBuildSettings:
  m_ObjectHideFlags: 0
  serializedVersion: 2
  m_Scenes:
  - enabled: 1
    path: Assets/Project/Scenes/MainMenu.unity
    guid: 7dfc39eeea6edcd45ad43565c44a9926
  - enabled: 1
    path: Assets/Project/Scenes/Easy.unity
    guid: 7509352702b0e5447bdab7438b22fa0a
  - enabled: 1
    path: Assets/Project/Scenes/Medium.unity
    guid: 2addd9c8c511094499c8b4a12523544e
  - enabled: 1
    path: Assets/Project/Scenes/Hard.unity
    guid: aa39d43a63d733141bfd65efc261d6fe
  m_configObjects: {}
